\begin{thebibliography}{1}
\bibitem{parker2016exploiting}
Parker,~James~and~Nunes,~Ernesto~and~Godoy,~Julio~and~Gini,~Maria.
\newblock Exploiting spatial locality and heterogeneity of agents for search and rescue teamwork.
\newblock 2016.

\bibitem{habibi2019solving}
Habibi,~Muhammad~Khakim~and~Grand,~Christophe~and~Lesire,~Charles~and~Pralet,~C{\'e}dric.
\newblock Solving Methods for Multi-Robot Missions Planning with Energy Capacity Consideration.
\newblock {\em 2019 International Conference on Robotics and Automation (ICRA)}, 2019.

\bibitem{yan2016multi}
Yan,~Chuanbo~and~Zhang,~Tao.
\newblock Multi-robot patrol: A distributed algorithm based on expected idleness.
\newblock {\em International Journal of Advanced Robotic Systems}, 2016.

\bibitem{otte2017multi}
Otte,~Michael~and~Kuhlman,~Michael~and~Sofge,~Donald
F.~Sève, S.~Theodoulis, P.~Wernert, M.~Zasadzinski, and M.~Boutayeb.
\newblock Multi-robot task allocation with auctions in harsh communication environments.
\newblock {\em 2017 International Symposium on Multi-Robot and Multi-Agent Systems (MRS)}, 2017.
\end{thebibliography}
